Project_1
…
data %>%
    group_by(Region, Country) %>%
    summarize(totPercentChange = (last(CPI) - first(CPI))/first(CPI)) %>%
    arrange(desc(totPercentChange))

## # A tibble: 184 x 3
## # Groups:   Region [6]
##    Region Country       totPercentChange
##    <chr>  <chr>                    <dbl>
##  1 AP     Afghanistan              1    
##  2 AP     North Korea              0.75 
##  3 ECA    Belarus                  0.517
##  4 SSA    Sudan                    0.455
##  5 AP     Myanmar                  0.381
##  6 AME    Guyana                   0.370
##  7 ECA    Uzbekistan               0.353
##  8 SSA    Gambia                   0.321
##  9 SSA    Côte d'Ivoire            0.296
## 10 ECA    Ukraine                  0.28 
## # … with 174 more rows
…
